{
    "name": "pt-BR",
    "title": "FoundryVTT - pt-BR",
    "description": "Add Brazilian Portuguese language to FoundryVTT",
    "version": "0.3.1",
    "minimumCoreVersion": "0.5.0",
    "author": "Miriadis, Bellenus, Thomaz M., ChaoticTabris, Caua539",
    
    "scripts": [],
    "styles": [],
    "packs": [],
    
    "languages": [
      {
        "lang": "pt-BR",
        "name": "Português (Brasil)",
        "path": "pt-BR.json"
      }
    ],
    
    "url": "https://gitlab.com/elvis-pereira/foundryvtt-brazilian-portuguese",
	  "manifest": "https://gitlab.com/elvis-pereira/foundryvtt-brazilian-portuguese/raw/master/pt-BR/module.json",
	  "download": "https://gitlab.com/elvis-pereira/foundryvtt-brazilian-portuguese/-/jobs/artifacts/master/raw/pt-BR.zip?job=build"
  }
  